{
    "sites": [
        {
            "siteId": 11,
            "programId": 1,
            "district": "Other",
            "subCounty": "N/A",
            "parish": "N/A",
            "villageName": "Other",
            "houseNumber": "N/A",
            "isActive": true,
            "healthCenter": "N/A"
        },
        {
            "siteId": 12,
            "programId": 1,
            "district": "Koboko",
            "subCounty": "Ludara",
            "parish": "Longira",
            "villageName": "Akuluze",
            "houseNumber": "KLLA001",
            "isActive": true,
            "healthCenter": "Ludara Health Centre III"
        },
        {
            "siteId": 13,
            "programId": 1,
            "district": "Koboko",
            "subCounty": "Ludara",
            "parish": "Longira",
            "villageName": "Akuluze",
            "houseNumber": "KLLA002",
            "isActive": true,
            "healthCenter": "Ludara Health Centre III"
        },
        {
            "siteId": 14,
            "programId": 1,
            "district": "Koboko",
            "subCounty": "Ludara",
            "parish": "Longira",
            "villageName": "Akuluze",
            "houseNumber": "KLLA003",
            "isActive": true,
            "healthCenter": "Ludara Health Centre III"
        },
        {
            "siteId": 15,
            "programId": 1,
            "district": "Koboko",
            "subCounty": "Ludara",
            "parish": "Longira",
            "villageName": "Akuluze",
            "houseNumber": "KLLA004",
            "isActive": true,
            "healthCenter": "Ludara Health Centre III"
        },
        {
            "siteId": 16,
            "programId": 1,
            "district": "Koboko",
            "subCounty": "Ludara",
            "parish": "Longira",
            "villageName": "Akuluze",
            "houseNumber": "KLLA005",
            "isActive": true,
            "healthCenter": "Ludara Health Centre III"
        },
        {
            "siteId": 17,
            "programId": 1,
            "district": "Koboko",
            "subCounty": "Ludara",
            "parish": "Longira",
            "villageName": "Akuluze",
            "houseNumber": "KLLA006",
            "isActive": true,
            "healthCenter": "Ludara Health Centre III"
        },
        {
            "siteId": 18,
            "programId": 1,
            "district": "Koboko",
            "subCounty": "Ludara",
            "parish": "Longira",
            "villageName": "Akuluze",
            "houseNumber": "KLLA007",
            "isActive": true,
            "healthCenter": "Ludara Health Centre III"
        },
        {
            "siteId": 19,
            "programId": 1,
            "district": "Koboko",
            "subCounty": "Ludara",
            "parish": "Longira",
            "villageName": "Akuluze",
            "houseNumber": "KLLA008",
            "isActive": true,
            "healthCenter": "Ludara Health Centre III"
        },
        {
            "siteId": 20,
            "programId": 1,
            "district": "Koboko",
            "subCounty": "Ludara",
            "parish": "Longira",
            "villageName": "Akuluze",
            "houseNumber": "KLLA009",
            "isActive": true,
            "healthCenter": "Ludara Health Centre III"
        },
        {
            "siteId": 21,
            "programId": 1,
            "district": "Koboko",
            "subCounty": "Ludara",
            "parish": "Longira",
            "villageName": "Akuluze",
            "houseNumber": "KLLA010",
            "isActive": true,
            "healthCenter": "Ludara Health Centre III"
        },
        {
            "siteId": 22,
            "programId": 1,
            "district": "Koboko",
            "subCounty": "Dranya",
            "parish": "Leiko",
            "villageName": "Amadunga",
            "houseNumber": "KDLA001",
            "isActive": true,
            "healthCenter": "Dranya Health Centre III"
        },
        {
            "siteId": 23,
            "programId": 1,
            "district": "Koboko",
            "subCounty": "Dranya",
            "parish": "Leiko",
            "villageName": "Amadunga",
            "houseNumber": "KDLA002",
            "isActive": true,
            "healthCenter": "Dranya Health Centre III"
        },
        {
            "siteId": 24,
            "programId": 1,
            "district": "Koboko",
            "subCounty": "Dranya",
            "parish": "Leiko",
            "villageName": "Amadunga",
            "houseNumber": "KDLA003",
            "isActive": true,
            "healthCenter": "Dranya Health Centre III"
        },
        {
            "siteId": 25,
            "programId": 1,
            "district": "Koboko",
            "subCounty": "Dranya",
            "parish": "Leiko",
            "villageName": "Amadunga",
            "houseNumber": "KDLA004",
            "isActive": true,
            "healthCenter": "Dranya Health Centre III"
        },
        {
            "siteId": 26,
            "programId": 1,
            "district": "Koboko",
            "subCounty": "Dranya",
            "parish": "Leiko",
            "villageName": "Amadunga",
            "houseNumber": "KDLA005",
            "isActive": true,
            "healthCenter": "Dranya Health Centre III"
        },
        {
            "siteId": 27,
            "programId": 1,
            "district": "Koboko",
            "subCounty": "Dranya",
            "parish": "Leiko",
            "villageName": "Amadunga",
            "houseNumber": "KDLA006",
            "isActive": true,
            "healthCenter": "Dranya Health Centre III"
        },
        {
            "siteId": 28,
            "programId": 1,
            "district": "Koboko",
            "subCounty": "Dranya",
            "parish": "Leiko",
            "villageName": "Amadunga",
            "houseNumber": "KDLA007",
            "isActive": true,
            "healthCenter": "Dranya Health Centre III"
        },
        {
            "siteId": 29,
            "programId": 1,
            "district": "Koboko",
            "subCounty": "Dranya",
            "parish": "Leiko",
            "villageName": "Amadunga",
            "houseNumber": "KDLA008",
            "isActive": true,
            "healthCenter": "Dranya Health Centre III"
        },
        {
            "siteId": 30,
            "programId": 1,
            "district": "Koboko",
            "subCounty": "Dranya",
            "parish": "Leiko",
            "villageName": "Amadunga",
            "houseNumber": "KDLA009",
            "isActive": true,
            "healthCenter": "Dranya Health Centre III"
        }
    ],
    "total": 61,
    "limit": 20,
    "offset": 0,
    "hasMore": true
}